# Exported from Wings 3D 2.0.1
mtllib magnetic_card.mtl
o C:\Documents\Scripts\C++\Daidal
#16 vertices, 28 faces
v 5.0000000e-2 0.0000000e+0 -0.24941200
v 5.0000000e-2 0.0000000e+0 0.24941200
v 5.0000000e-2 0.14902000 0.40000000
v 5.0000000e-2 0.14902000 -0.40000000
v 5.0000000e-2 0.85098000 -0.40000000
v 5.0000000e-2 1.00000000 -0.24941200
v 5.0000000e-2 1.00000000 0.24941200
v 5.0000000e-2 0.85098000 0.40000000
v -5.0000000e-2 0.14902000 0.40000000
v -5.0000000e-2 0.0000000e+0 0.24941200
v -5.0000000e-2 0.0000000e+0 -0.24941200
v -5.0000000e-2 1.00000000 0.24941200
v -5.0000000e-2 0.85098000 0.40000000
v -5.0000000e-2 1.00000000 -0.24941200
v -5.0000000e-2 0.85098000 -0.40000000
v -5.0000000e-2 0.14902000 -0.40000000
vt 5.4688000e-2 0.49218800
vt 5.4688000e-2 0.83984400
vt 0.12890600 0.41406300
vt 0.12890600 0.91406300
vt 0.26562500 0.21484400
vt 0.26562500 0.24218800
vt 0.26562500 0.26953100
vt 0.37890600 0.41406300
vt 0.37890600 0.91406300
vt 0.45703100 0.21093800
vt 0.45703100 0.24218800
vt 0.45703100 0.26953100
vt 0.45703100 0.49218800
vt 0.45703100 0.83984400
vt 0.46093800 0.21484400
vt 0.46093800 0.24218800
vt 0.46093800 0.26953100
vt 0.51953100 0.21093800
vt 0.51953100 0.24218800
vt 0.51953100 0.26953100
vt 0.56250000 0.49609400
vt 0.56250000 0.84375000
vt 0.63671900 0.41796900
vt 0.63671900 0.91796900
vt 0.65625000 0.21093800
vt 0.65625000 0.24218800
vt 0.65625000 0.26953100
vt 0.71484400 0.21093800
vt 0.71484400 0.24218800
vt 0.71484400 0.26953100
vt 0.88671900 0.41796900
vt 0.88671900 0.91796900
vt 0.96484400 0.49609400
vt 0.96484400 0.84375000
vn 0.73414418 -0.62798608 -0.25819722
vn 0.26094116 -0.89283509 0.36709020
vn 0.95579709 -0.11322973 0.27135024
vn 0.47636372 -0.33859823 -0.81143629
vn 0.58188763 0.41360438 -0.70024153
vn 0.58115989 0.78770345 -0.20439292
vn 0.73414418 0.62798608 0.25819722
vn 0.26146877 0.37170279 0.89076996
vn -0.26146877 -0.37170279 0.89076996
vn -0.73414418 -0.62798608 0.25819722
vn -0.47556567 -0.81359666 -0.33451123
vn -0.26094116 0.89283509 0.36709020
vn -0.95579709 0.11322973 0.27135024
vn -0.58115989 0.70366705 -0.40878583
vn -0.58188763 0.20680219 -0.78653649
vn -0.73487740 -0.26117458 -0.62589380
g C:\Documents\Scripts\C++\Daidal_default
usemtl default
s 1
f 1/31/1 3/21/3 2/23/2
f 1/31/1 4/33/4 3/21/3
f 1/19/1 11/20/11 4/16/4
f 2/26/2 11/20/11 1/19/1
f 3/29/3 9/30/9 2/26/2
f 4/33/4 5/34/5 3/21/3
f 4/7/4 15/11/15 5/12/5
f 4/7/4 16/6/16 15/11/15
f 5/34/5 6/32/6 3/21/3
f 5/11/5 14/18/14 6/19/6
f 5/11/5 15/10/15 14/18/14
f 6/32/6 7/24/7 3/21/3
f 6/19/6 12/25/12 7/26/7
f 6/19/6 14/18/14 12/25/12
f 7/24/7 8/22/8 3/21/3
f 7/26/7 12/25/12 8/29/8
f 8/15/8 9/6/9 3/5/3
f 8/15/8 13/16/13 9/6/9
f 9/30/9 10/27/10 2/26/2
f 9/13/9 13/14/13 10/8/10
f 10/27/10 11/20/11 2/26/2
f 10/8/10 13/14/13 11/3/11
f 11/20/11 16/17/16 4/16/4
f 12/25/12 13/28/13 8/29/8
f 12/9/12 14/4/14 13/14/13
f 13/14/13 16/1/16 11/3/11
f 14/4/14 15/2/15 13/14/13
f 15/2/15 16/1/16 13/14/13
