# Exported from Wings 3D 2.0.1
mtllib ventilation_shaft_1.mtl
o Cube1
#8 vertices, 4 faces
v -1.50000000 0.0000000e+0 -2.50000000
v -1.50000000 0.0000000e+0 2.50000000
v -1.50000000 3.00000000 -2.50000000
v -1.50000000 3.00000000 2.50000000
v 1.50000000 0.0000000e+0 -2.50000000
v 1.50000000 0.0000000e+0 2.50000000
v 1.50000000 3.00000000 -2.50000000
v 1.50000000 3.00000000 2.50000000
vt 0.0000000e+0 0.0000000e+0
vt 0.0000000e+0 4.4408921e-16
vt 0.0000000e+0 1.00000000
vt 0.0000000e+0 1.00000000
vt 1.00000000 0.0000000e+0
vt 1.00000000 2.2204460e-16
vt 1.00000000 1.00000000
vt 1.00000000 1.00000000
vn 0.70710678 0.70710678 0.0000000e+0
vn 0.70710678 0.70710678 0.0000000e+0
vn 0.70710678 -0.70710678 0.0000000e+0
vn 0.70710678 -0.70710678 0.0000000e+0
vn -0.70710678 0.70710678 0.0000000e+0
vn -0.70710678 0.70710678 0.0000000e+0
vn -0.70710678 -0.70710678 0.0000000e+0
vn -0.70710678 -0.70710678 0.0000000e+0
g Cube1_Cube1_auv
usemtl Cube1_auv
s 1
f 1/5/1 3/7/3 4/4/4 2/2/2
f 2/1/2 6/5/6 5/8/5 1/4/1
f 3/8/3 7/4/7 8/1/8 4/5/4
f 6/6/6 8/7/8 7/3/7 5/1/5
