# Exported from Wings 3D 2.0.1
mtllib bar_light.mtl
o Cube1
#8 vertices, 6 faces
v -0.50000000 6.42500000 -5.00000000
v -0.50000000 6.42500000 -4.90000000
v -0.50000000 6.57500000 -5.00000000
v -0.50000000 6.57500000 -4.90000000
v 0.50000000 6.42500000 -5.00000000
v 0.50000000 6.42500000 -4.90000000
v 0.50000000 6.57500000 -5.00000000
v 0.50000000 6.57500000 -4.90000000
vt 0.0000000e+0 0.42500000
vt 0.0000000e+0 0.42500000
vt 0.0000000e+0 0.45000000
vt 0.0000000e+0 0.55000000
vt 0.0000000e+0 0.57500000
vt 1.1102230e-16 0.57500000
vt 0.16666667 0.0000000e+0
vt 0.16666667 1.00000000
vt 0.16666667 1.00000000
vt 0.16666667 -4.4408921e-16
vt 0.83333333 0.0000000e+0
vt 0.83333333 1.00000000
vt 0.83333333 0.0000000e+0
vt 0.83333333 1.00000000
vt 1.00000000 0.55000000
vt 1.00000000 0.42500000
vt 1.00000000 0.42500000
vt 1.00000000 0.45000000
vt 1.00000000 0.45000000
vt 1.00000000 0.55000000
vt 1.00000000 0.57500000
vt 1.00000000 0.57500000
vn -0.57735027 -0.57735027 -0.57735027
vn -0.57735027 -0.57735027 0.57735027
vn -0.57735027 0.57735027 -0.57735027
vn -0.57735027 0.57735027 0.57735027
vn 0.57735027 -0.57735027 -0.57735027
vn 0.57735027 -0.57735027 0.57735027
vn 0.57735027 0.57735027 -0.57735027
vn 0.57735027 0.57735027 0.57735027
g Cube1_Cube1_auv
usemtl Cube1_auv
s 1
f 1/20/1 5/4/5 6/3/6 2/18/2
f 2/13/2 4/14/4 3/9/3 1/7/1
f 2/1/2 6/17/6 8/22/8 4/5/4
f 3/21/3 7/6/7 5/2/5 1/16/1
f 4/3/4 8/19/8 7/15/7 3/4/3
f 5/11/5 7/12/7 8/8/8 6/10/6
