# Exported from Wings 3D 2.0.1
mtllib door_light.mtl
o Cube1
#20 vertices, 18 faces
v 1.00000000 6.60000000 -1.00000000
v 1.00000000 6.60000000 1.00000000
v 1.00000000 7.40000000 -1.00000000
v 1.00000000 7.40000000 1.00000000
v 1.25000000 6.60000000 -1.00000000
v 1.25000000 6.60000000 1.00000000
v 1.25000000 7.40000000 -1.00000000
v 1.25000000 7.40000000 1.00000000
v 1.25000000 6.68000000 0.90000000
v 1.25000000 6.68000000 -0.90000000
v 1.25000000 7.32000000 -0.90000000
v 1.25000000 7.32000000 0.90000000
v 1.40000000 6.68000000 0.90000000
v 1.40000000 6.68000000 -0.90000000
v 1.40000000 7.32000000 -0.90000000
v 1.40000000 7.32000000 0.90000000
v 1.50000000 6.76000000 0.80000000
v 1.50000000 6.76000000 -0.80000000
v 1.50000000 7.24000000 -0.80000000
v 1.50000000 7.24000000 0.80000000
vt 7.3057588e-3 0.95740824
vt 1.1363888e-2 0.86961695
vt 2.7322010e-2 0.97299663
vt 3.2732849e-2 0.85594157
vt 4.9269833e-2 0.97401116
vt 5.4680672e-2 0.85695611
vt 5.7374873e-2 6.1227063e-2
vt 5.8305331e-2 0.85853355
vt 5.8305331e-2 0.87318106
vt 5.8305331e-2 0.95939068
vt 5.8305331e-2 0.97403819
vt 6.4196766e-2 0.76427425
vt 6.8070335e-2 0.88699086
vt 6.8070335e-2 0.94558088
vt 9.6054056e-2 2.1789892e-2
vt 0.10363394 0.80295343
vt 0.19369950 2.0842407e-2
vt 0.20127938 0.80200595
vt 0.22431040 0.88699086
vt 0.22431040 0.94558088
vt 0.23407540 0.85853355
vt 0.23407540 0.87318106
vt 0.23407540 0.95939068
vt 0.23407540 0.97403819
vt 0.24920490 0.96902498
vt 0.25461574 0.85196992
vt 0.27115272 0.97003951
vt 0.27656356 0.85298445
vt 0.29252168 0.95636414
vt 0.29657981 0.86857284
vt 0.35144033 0.85186461
vt 0.35144033 0.97392716
vt 0.37086097 3.0421347e-2
vt 0.37844085 0.81158489
vt 0.46850641 2.9473862e-2
vt 0.47608629 0.81063740
vt 0.50794358 6.8153045e-2
vt 0.51476548 0.77120023
vt 0.57563751 0.63025909
vt 0.57786896 0.18595702
vt 0.59556543 0.85186461
vt 0.59556543 0.97392716
vt 0.68671303 0.63081695
vt 0.68894448 0.18651488
vt 0.73136638 0.58660989
vt 0.73315154 0.23116823
vt 0.77311064 0.57880272
vt 0.77489580 0.22336106
vt 0.81731770 0.62345608
vt 0.81954915 0.17915400
vt 0.92839322 0.62401394
vt 0.93062467 0.17971187
vn -0.57735027 -0.57735027 -0.57735027
vn -0.57735027 -0.57735027 0.57735027
vn -0.57735027 0.57735027 -0.57735027
vn -0.57735027 0.57735027 0.57735027
vn 0.81649658 -0.40824829 -0.40824829
vn 0.81649658 -0.40824829 0.40824829
vn 0.81649658 0.40824829 -0.40824829
vn 0.81649658 0.40824829 0.40824829
vn 0.81649658 -0.40824829 0.40824829
vn 0.81649658 -0.40824829 -0.40824829
vn 0.81649658 0.40824829 -0.40824829
vn 0.81649658 0.40824829 0.40824829
vn 0.47505601 -0.63523898 0.60892793
vn 0.47505601 -0.63523898 -0.60892793
vn 0.47505601 0.63523898 -0.60892793
vn 0.47505601 0.63523898 0.60892793
vn 0.91131520 -0.30517929 0.27635160
vn 0.91131520 -0.30517929 -0.27635160
vn 0.91131520 0.30517929 -0.27635160
vn 0.91131520 0.30517929 0.27635160
g Cube1_Cube1_auv
usemtl Cube1_auv
s 1
f 1/18/1 5/16/5 6/15/6 2/17/2
f 2/41/2 4/42/4 3/32/3 1/31/1
f 2/40/2 6/44/6 8/43/8 4/39/4
f 3/51/3 7/49/7 5/50/5 1/52/1
f 4/33/4 8/35/8 7/36/7 3/34/3
f 5/16/5 10/12/10 9/7/9 6/15/6
f 6/44/6 9/46/9 12/45/12 8/43/8
f 7/49/7 11/47/11 10/48/10 5/50/5
f 8/35/8 12/37/12 11/38/11 7/36/7
f 9/26/9 13/28/13 16/27/16 12/25/12
f 10/21/10 14/22/14 13/9/13 9/8/9
f 11/5/11 15/3/15 14/4/14 10/6/10
f 12/11/12 16/10/16 15/23/15 11/24/11
f 14/4/14 15/3/15 19/1/19 18/2/18
f 15/23/15 16/10/16 20/14/20 19/20/19
f 16/27/16 13/28/13 17/30/17 20/29/20
f 18/19/18 17/13/17 13/9/13 14/22/14
f 18/19/18 19/20/19 20/14/20 17/13/17
