# Exported from Wings 3D 2.0.1
mtllib grid.mtl
o cube1
#8 vertices, 6 faces
v -5.00000000 -1.0000000e-1 5.00000000
v -5.00000000 0.0000000e+0 5.00000000
v 5.00000000 0.0000000e+0 5.00000000
v 5.00000000 -1.0000000e-1 5.00000000
v -5.00000000 -1.0000000e-1 -5.00000000
v -5.00000000 0.0000000e+0 -5.00000000
v 5.00000000 0.0000000e+0 -5.00000000
v 5.00000000 -1.0000000e-1 -5.00000000
vt 0.0000000e+0 0.0000000e+0
vt 0.0000000e+0 0.97000000
vt 0.0000000e+0 1.00000000
vt 1.3877788e-17 0.97000000
vt 1.1102230e-16 0.97000000
vt 2.2204460e-16 0.0000000e+0
vt 2.2204460e-16 1.00000000
vt 3.4694470e-16 1.00000000
vt 4.4408921e-16 1.00000000
vt 1.00000000 0.0000000e+0
vt 1.00000000 1.6653345e-16
vt 1.00000000 0.97000000
vt 1.00000000 1.00000000
vn -0.57735027 -0.57735027 0.57735027
vn -0.57735027 0.57735027 0.57735027
vn 0.57735027 0.57735027 0.57735027
vn 0.57735027 -0.57735027 0.57735027
vn -0.57735027 -0.57735027 -0.57735027
vn -0.57735027 0.57735027 -0.57735027
vn 0.57735027 0.57735027 -0.57735027
vn 0.57735027 -0.57735027 -0.57735027
g cube1_cube1_auv
usemtl cube1_auv
s 1
f 1/5/1 4/12/4 3/13/3 2/9/2
f 1/10/1 5/13/5 8/7/8 4/6/4
f 2/13/2 6/3/6 5/2/5 1/12/1
f 3/11/3 7/13/7 6/3/6 2/1/2
f 4/4/4 8/12/8 7/13/7 3/8/3
f 6/13/6 7/3/7 8/2/8 5/12/5
