# Exported from Wings 3D 2.0.1
mtllib lift.mtl
o Cube1
#8 vertices, 6 faces
v -3.00000000 -0.10000000 -3.00000000
v -3.00000000 -0.10000000 3.00000000
v -3.00000000 0.10000000 -3.00000000
v -3.00000000 0.10000000 3.00000000
v 3.00000000 -0.10000000 -3.00000000
v 3.00000000 -0.10000000 3.00000000
v 3.00000000 0.10000000 -3.00000000
v 3.00000000 0.10000000 3.00000000
vt -2.7755576e-17 0.96666667
vt -2.7755576e-17 1.00000000
vt 0.0000000e+0 0.0000000e+0
vt 0.0000000e+0 0.96666667
vt 0.0000000e+0 1.00000000
vt 1.6653345e-16 1.00000000
vt 8.1003951e-5 1.00000000
vt 8.1003951e-5 -3.4694470e-17
vt 0.99991900 1.00000000
vt 0.99991900 9.0205621e-17
vt 1.00000000 0.0000000e+0
vt 1.00000000 1.00000000
vt 1.00000000 0.96666667
vt 1.00000000 1.00000000
vt 1.00000000 0.96666667
vt 1.00000000 0.96666667
vt 1.00000000 1.00000000
vt 1.00000000 1.00000000
vn -0.57735027 -0.57735027 -0.57735027
vn -0.57735027 -0.57735027 0.57735027
vn -0.57735027 0.57735027 -0.57735027
vn -0.57735027 0.57735027 0.57735027
vn 0.57735027 -0.57735027 -0.57735027
vn 0.57735027 -0.57735027 0.57735027
vn 0.57735027 0.57735027 -0.57735027
vn 0.57735027 0.57735027 0.57735027
g Cube1_Cube1_auv
usemtl Cube1_auv
s 1
f 1/12/1 5/5/5 6/3/6 2/11/2
f 2/16/2 4/18/4 3/5/3 1/4/1
f 2/4/2 6/16/6 8/18/8 4/6/4
f 3/14/3 7/2/7 5/1/5 1/13/1
f 4/8/4 8/10/8 7/9/7 3/7/3
f 5/15/5 7/17/7 8/5/8 6/4/6
