# Exported from Wings 3D 2.0.1
mtllib spot.mtl
o Cube1
#16 vertices, 14 faces
v -0.10000000 -0.55000000 -0.10000000
v -0.10000000 -0.55000000 0.10000000
v -0.10000000 1.1102230e-16 -0.10000000
v -0.10000000 1.1102230e-16 0.10000000
v 0.10000000 -0.55000000 -0.10000000
v 0.10000000 -0.55000000 0.10000000
v 0.10000000 1.1102230e-16 -0.10000000
v 0.10000000 1.1102230e-16 0.10000000
v -0.42000000 -0.80000000 0.42000000
v -0.42000000 -0.80000000 -0.42000000
v 0.42000000 -0.80000000 -0.42000000
v 0.42000000 -0.80000000 0.42000000
v -0.33600000 -0.75000000 0.33600000
v -0.33600000 -0.75000000 -0.33600000
v 0.33600000 -0.75000000 -0.33600000
v 0.33600000 -0.75000000 0.33600000
vt 8.2333333e-3 0.99161224
vt 1.4877778e-2 0.55134557
vt 1.7146695e-2 0.52910000
vt 1.8830838e-2 0.98442899
vt 2.1567032e-2 9.8222222e-3
vt 2.1567032e-2 0.34111354
vt 6.1558574e-2 0.59760222
vt 6.5059361e-2 0.93777658
vt 0.19631205 0.80712318
vt 0.19851840 0.71400071
vt 0.28945975 0.80671153
vt 0.29166609 0.71358906
vt 0.35285835 9.8222222e-3
vt 0.35285835 0.34111354
vt 0.40175072 0.59799798
vt 0.40525150 0.93817234
vt 0.44797924 0.55134557
vt 0.45193230 0.98442899
vt 0.47083145 0.99161224
vt 0.47974481 0.52910000
vt 0.51831148 0.55460242
vt 0.51831148 0.97364650
vt 0.51831148 0.87504789
vt 0.51831148 0.87504789
vt 0.61691008 0.55460242
vt 0.61691008 0.87504789
vt 0.61691008 0.97364650
vt 0.71550869 0.55460242
vt 0.71550869 0.87504789
vt 0.73939168 0.55221111
vt 0.73939168 0.87265658
vt 0.83799028 0.55221111
vt 0.83799028 0.87265658
vt 0.93658889 0.87265658
vt 0.93658889 0.55221111
vn -0.58206609 0.56780114 -0.58206609
vn -0.58206609 0.56780114 0.58206609
vn -0.57735027 0.57735027 -0.57735027
vn -0.57735027 0.57735027 0.57735027
vn 0.58206609 0.56780114 -0.58206609
vn 0.58206609 0.56780114 0.58206609
vn 0.57735027 0.57735027 -0.57735027
vn 0.57735027 0.57735027 0.57735027
vn -0.50815595 -0.69538123 0.50815595
vn -0.50815595 -0.69538123 -0.50815595
vn 0.50815595 -0.69538123 -0.50815595
vn 0.50815595 -0.69538123 0.50815595
vn 0.18181745 -0.96637717 -0.18181745
vn 0.18181745 -0.96637717 0.18181745
vn -0.18181745 -0.96637717 0.18181745
vn -0.18181745 -0.96637717 -0.18181745
g Cube1_Cube1_auv
usemtl Cube1_auv
s 1
f 1/9/1 10/1/10 9/3/9 2/10/2
f 2/28/2 4/29/4 3/26/3 1/25/1
f 2/30/2 6/32/6 8/33/8 4/31/4
f 2/10/2 9/3/9 12/20/12 6/12/6
f 3/26/3 7/24/7 5/21/5 1/25/1
f 4/23/4 8/26/8 7/27/7 3/22/3
f 5/35/5 7/34/7 8/33/8 6/32/6
f 5/11/5 11/19/11 10/1/10 1/9/1
f 6/12/6 12/20/12 11/19/11 5/11/5
f 9/17/9 13/15/13 16/7/16 12/2/12
f 10/18/10 14/16/14 13/15/13 9/17/9
f 11/4/11 15/8/15 14/16/14 10/18/10
f 12/2/12 16/7/16 15/8/15 11/4/11
f 14/14/14 15/6/15 16/5/16 13/13/13
