# Exported from Wings 3D 2.0.1
mtllib teleporter.mtl
o Cube1
#56 vertices, 58 faces
v -1.50000000 2.5000000e-2 -0.30010950
v -1.28786797 2.5000000e-2 -0.81224153
v -0.30000000 2.5000000e-2 -1.50010950
v -0.81213203 2.5000000e-2 -1.28797747
v -1.50000000 2.5000000e-2 0.29989050
v -1.28786797 2.5000000e-2 0.81202253
v -0.81213203 2.5000000e-2 1.28775847
v -0.30000000 2.5000000e-2 1.49989050
v -1.50000000 0.22500000 -0.30010950
v -1.28786797 0.22500000 -0.81224153
v -0.81213203 0.22500000 -1.28797747
v -0.30000000 0.22500000 -1.50010950
v -1.50000000 0.22500000 0.29989050
v -1.28786797 0.22500000 0.81202253
v -0.30000000 0.22500000 1.49989050
v -0.81213203 0.22500000 1.28775847
v 0.30000000 2.5000000e-2 -1.50010950
v 0.81213203 2.5000000e-2 -1.28797747
v 1.50000000 2.5000000e-2 -0.30010950
v 1.28786797 2.5000000e-2 -0.81224153
v 1.50000000 2.5000000e-2 0.29989050
v 1.28786797 2.5000000e-2 0.81202253
v 0.30000000 2.5000000e-2 1.49989050
v 0.81213203 2.5000000e-2 1.28775847
v 0.30000000 0.22500000 -1.50010950
v 0.81213203 0.22500000 -1.28797747
v 1.28786797 0.22500000 -0.81224153
v 1.50000000 0.22500000 -0.30010950
v 1.50000000 0.22500000 0.29989050
v 1.28786797 0.22500000 0.81202253
v 0.81213203 0.22500000 1.28775847
v 0.30000000 0.22500000 1.49989050
v -0.30000000 0.22500000 -0.26782255
v -0.30000000 0.22500000 0.27698888
v 0.30000000 0.22500000 -0.26782255
v 0.30000000 0.22500000 0.27698888
v 0.81213203 0.22500000 -0.26984819
v 0.81213203 0.22500000 0.27432186
v 1.28786797 0.22500000 -0.27082018
v 1.28786797 0.22500000 0.27060118
v -0.81213203 0.22500000 0.27432186
v -0.81213203 0.22500000 -0.26984819
v -1.28786797 0.22500000 0.27060118
v -1.28786797 0.22500000 -0.27082018
v -0.30000000 2.5000000e-2 0.27321483
v -0.30000000 2.5000000e-2 -0.29293281
v 0.30000000 2.5000000e-2 0.27321483
v 0.30000000 2.5000000e-2 -0.29293281
v 0.81213203 2.5000000e-2 0.28781220
v 0.81213203 2.5000000e-2 -0.27340696
v 1.28786797 2.5000000e-2 0.27060118
v 1.28786797 2.5000000e-2 -0.27082018
v -0.81213203 2.5000000e-2 -0.27340696
v -0.81213203 2.5000000e-2 0.28781220
v -1.28786797 2.5000000e-2 -0.27082018
v -1.28786797 2.5000000e-2 0.27060118
vt -3.1930118e-4 0.17751261
vt -3.1930118e-4 0.26637758
vt 0.0000000e+0 0.92121896
vt 0.0000000e+0 0.92121896
vt 3.1884652e-5 1.00000000
vt 3.9697069e-5 1.00000000
vt 3.1099208e-2 0.10166162
vt 3.1099208e-2 0.18185060
vt 3.1099208e-2 0.26203959
vt 3.1099208e-2 0.34222857
vt 0.10155964 3.1201192e-2
vt 0.10155964 0.18129954
vt 0.10155964 0.26189563
vt 0.10155964 0.41268900
vt 0.11645677 0.99994563
vt 0.11646458 0.99993408
vt 0.11648015 0.92115704
vt 0.11648016 0.92116859
vt 0.17741063 -2.1731741e-4
vt 0.17741063 0.18090453
vt 0.17741063 0.26159561
vt 0.17741063 0.44410751
vt 0.25776143 0.92110426
vt 0.25776144 0.92112982
vt 0.25785438 0.99989692
vt 0.25786218 0.99987135
vt 0.26627559 -2.1731741e-4
vt 0.26627559 0.18090453
vt 0.26627559 0.26159561
vt 0.26627559 0.44410751
vt 0.34212659 3.1201192e-2
vt 0.34212659 0.18129954
vt 0.34212659 0.26189563
vt 0.34212659 0.41268900
vt 0.37422556 0.99987181
vt 0.37423336 0.99983470
vt 0.37426924 0.92107004
vt 0.37426926 0.92110715
vt 0.41258701 0.10166162
vt 0.41258701 0.18185060
vt 0.41258701 0.26203959
vt 0.41258701 0.34222857
vt 0.44400552 0.17751261
vt 0.44400552 0.26637758
vt 0.50024214 0.92105374
vt 0.50024215 0.92110334
vt 0.50024592 0.99983466
vt 0.50025371 0.99978505
vt 0.55567517 0.17778150
vt 0.55567517 0.26664647
vt 0.58709368 0.10193051
vt 0.58709368 0.18211949
vt 0.58709368 0.26230847
vt 0.58709368 0.34249746
vt 0.61659085 0.92109194
vt 0.61659086 0.92115308
vt 0.61660816 0.99984907
vt 0.61661595 0.99978793
vt 0.65755411 3.1470080e-2
vt 0.65755411 0.18173637
vt 0.65755411 0.26485757
vt 0.65755411 0.41295789
vt 0.73340510 5.1570727e-5
vt 0.73340510 0.17884443
vt 0.73340510 0.26269558
vt 0.73340510 0.44437640
vt 0.75773296 0.99989094
vt 0.75774075 0.99981580
vt 0.75782370 0.92112078
vt 0.75782371 0.92119592
vt 0.82227007 5.1570727e-5
vt 0.82227007 0.17884443
vt 0.82227007 0.26269558
vt 0.82227007 0.44437640
vt 0.87407949 0.92116326
vt 0.87407950 0.92124994
vt 0.87409491 0.99993320
vt 0.87410270 0.99984652
vt 0.89812106 3.1470080e-2
vt 0.89812106 0.18173637
vt 0.89812106 0.26485757
vt 0.89812106 0.41295789
vt 0.96858149 0.10193051
vt 0.96858149 0.18211949
vt 0.96858149 0.26230847
vt 0.96858149 0.34249746
vt 0.99995981 1.00000000
vt 0.99996762 0.99990084
vt 1.00000000 0.92121896
vt 1.00000000 0.92131813
vt 1.00000000 0.17778150
vt 1.00000000 0.26664647
vn -0.68676008 -0.71393252 -0.13660507
vn -0.58220708 -0.71393252 -0.38901834
vn -0.13660507 -0.71393252 -0.68676008
vn -0.38901834 -0.71393252 -0.58220708
vn -0.68676008 -0.71393252 0.13660507
vn -0.58220708 -0.71393252 0.38901834
vn -0.38901834 -0.71393252 0.58220708
vn -0.13660507 -0.71393252 0.68676008
vn -0.68676008 0.71393252 -0.13660507
vn -0.58220708 0.71393252 -0.38901834
vn -0.38901834 0.71393252 -0.58220708
vn -0.13660507 0.71393252 -0.68676008
vn -0.68676008 0.71393252 0.13660507
vn -0.58220708 0.71393252 0.38901834
vn -0.13660507 0.71393252 0.68676008
vn -0.38901834 0.71393252 0.58220708
vn 0.13660507 -0.71393252 -0.68676008
vn 0.38901834 -0.71393252 -0.58220708
vn 0.68676008 -0.71393252 -0.13660507
vn 0.58220708 -0.71393252 -0.38901834
vn 0.68676008 -0.71393252 0.13660507
vn 0.58220708 -0.71393252 0.38901834
vn 0.13660507 -0.71393252 0.68676008
vn 0.38901834 -0.71393252 0.58220708
vn 0.13660507 0.71393252 -0.68676008
vn 0.38901834 0.71393252 -0.58220708
vn 0.58220708 0.71393252 -0.38901834
vn 0.68676008 0.71393252 -0.13660507
vn 0.68676008 0.71393252 0.13660507
vn 0.58220708 0.71393252 0.38901834
vn 0.38901834 0.71393252 0.58220708
vn 0.13660507 0.71393252 0.68676008
vn 0.0000000e+0 1.00000000 0.0000000e+0
vn 0.0000000e+0 1.00000000 0.0000000e+0
vn 0.0000000e+0 1.00000000 0.0000000e+0
vn 0.0000000e+0 1.00000000 0.0000000e+0
vn 0.0000000e+0 1.00000000 0.0000000e+0
vn 0.0000000e+0 1.00000000 0.0000000e+0
vn 0.0000000e+0 1.00000000 0.0000000e+0
vn 0.0000000e+0 1.00000000 0.0000000e+0
vn 0.0000000e+0 1.00000000 0.0000000e+0
vn 0.0000000e+0 1.00000000 0.0000000e+0
vn 0.0000000e+0 1.00000000 0.0000000e+0
vn 0.0000000e+0 1.00000000 0.0000000e+0
vn 0.0000000e+0 -1.00000000 0.0000000e+0
vn 0.0000000e+0 -1.00000000 0.0000000e+0
vn 0.0000000e+0 -1.00000000 0.0000000e+0
vn 0.0000000e+0 -1.00000000 0.0000000e+0
vn 0.0000000e+0 -1.00000000 0.0000000e+0
vn 0.0000000e+0 -1.00000000 0.0000000e+0
vn 0.0000000e+0 -1.00000000 0.0000000e+0
vn 0.0000000e+0 -1.00000000 0.0000000e+0
vn 0.0000000e+0 -1.00000000 0.0000000e+0
vn 0.0000000e+0 -1.00000000 0.0000000e+0
vn 0.0000000e+0 -1.00000000 0.0000000e+0
vn 0.0000000e+0 -1.00000000 0.0000000e+0
g Cube1_Cube1_auv
usemtl Cube1_auv
s 1
f 1/76/1 9/77/9 10/67/10 2/70/2
f 1/49/1 55/52/55 56/53/56 5/50/5
f 2/70/2 10/67/10 11/57/11 4/56/4
f 2/51/2 55/52/55 1/49/1
f 3/46/3 4/56/4 11/57/11 12/47/12
f 3/46/3 12/47/12 25/35/25 17/38/17
f 3/63/3 46/64/46 53/60/53 4/59/4
f 4/59/4 53/60/53 55/52/55 2/51/2
f 5/4/5 6/17/6 14/16/14 13/6/13
f 5/90/5 13/87/13 9/77/9 1/76/1
f 5/50/5 56/53/56 6/54/6
f 6/54/6 56/53/56 54/61/54 7/62/7
f 7/23/7 16/26/16 14/16/14 6/17/6
f 7/62/7 54/61/54 45/65/45 8/66/8
f 8/37/8 15/36/15 16/26/16 7/23/7
f 8/66/8 45/65/45 47/73/47 23/74/23
f 9/2/9 44/9/44 10/10/10
f 10/10/10 44/9/44 42/13/42 11/14/11
f 11/14/11 42/13/42 33/21/33 12/22/12
f 12/22/12 33/21/33 35/29/35 25/30/25
f 13/1/13 43/8/43 44/9/44 9/2/9
f 14/7/14 43/8/43 13/1/13
f 15/19/15 34/20/34 41/12/41 16/11/16
f 16/11/16 41/12/41 43/8/43 14/7/14
f 17/71/17 48/72/48 46/64/46 3/63/3
f 18/24/18 26/25/26 27/15/27 20/18/20
f 18/79/18 50/80/50 48/72/48 17/71/17
f 19/89/19 28/88/28 29/78/29 21/75/21
f 19/91/19 52/84/52 20/83/20
f 20/18/20 27/15/27 28/5/28 19/3/19
f 20/83/20 52/84/52 50/80/50 18/79/18
f 21/75/21 29/78/29 30/68/30 22/69/22
f 21/92/21 51/85/51 52/84/52 19/91/19
f 22/69/22 30/68/30 31/58/31 24/55/24
f 22/86/22 51/85/51 21/92/21
f 23/45/23 32/48/32 15/36/15 8/37/8
f 23/74/23 47/73/47 49/81/49 24/82/24
f 24/55/24 31/58/31 32/48/32 23/45/23
f 24/82/24 49/81/49 51/85/51 22/86/22
f 25/30/25 35/29/35 37/33/37 26/34/26
f 26/25/26 18/24/18 17/38/17 25/35/25
f 26/34/26 37/33/37 39/41/39 27/42/27
f 27/42/27 39/41/39 28/44/28
f 28/44/28 39/41/39 40/40/40 29/43/29
f 29/43/29 40/40/40 30/39/30
f 30/39/30 40/40/40 38/32/38 31/31/31
f 31/31/31 38/32/38 36/28/36 32/27/32
f 32/27/32 36/28/36 34/20/34 15/19/15
f 33/21/33 42/13/42 41/12/41 34/20/34
f 34/20/34 36/28/36 35/29/35 33/21/33
f 36/28/36 38/32/38 37/33/37 35/29/35
f 38/32/38 40/40/40 39/41/39 37/33/37
f 42/13/42 44/9/44 43/8/43 41/12/41
f 45/65/45 54/61/54 53/60/53 46/64/46
f 46/64/46 48/72/48 47/73/47 45/65/45
f 48/72/48 50/80/50 49/81/49 47/73/47
f 50/80/50 52/84/52 51/85/51 49/81/49
f 54/61/54 56/53/56 55/52/55 53/60/53
